(module "ESP-12F-ESP8266MOD(no-bottom-row)" (layer F.Cu) (tedit 6483D1A7)
  (descr "WIFIM-SMD_ESP-12F-ESP8266MOD footprint")
  (tags "WIFIM-SMD_ESP-12F-ESP8266MOD footprint")
  (fp_text reference REF** (at -4.151943 -9.998476) (layer F.SilkS)
    (effects (font (size 1 1) (thickness 0.15)))
  )
  (fp_text value "ESP-12F-ESP8266MOD(no-bottom-row)" (at -4.151943 10.001524) (layer F.Fab)
    (effects (font (size 1 1) (thickness 0.15)))
  )
  (fp_circle (center -9.144145 8.636017) (end -8.860173 8.636017) (layer F.SilkS) (width 0.254001))
  (fp_circle (center -7.747142 8.382017) (end -7.497206 8.382017) (layer F.Fab) (width 0.5))
  (fp_line (start -6.581763 8.001016) (end -6.719482 8.001016) (layer F.SilkS) (width 0.254001))
  (fp_line (start -4.581763 8.001016) (end -4.719482 8.001016) (layer F.SilkS) (width 0.254001))
  (fp_line (start -2.581763 8.001016) (end -2.719482 8.001016) (layer F.SilkS) (width 0.254001))
  (fp_line (start -0.581763 8.001016) (end -0.719482 8.001016) (layer F.SilkS) (width 0.254001))
  (fp_line (start 1.418237 8.001016) (end 1.280518 8.001016) (layer F.SilkS) (width 0.254001))
  (fp_line (start 3.418237 8.001016) (end 3.280518 8.001016) (layer F.SilkS) (width 0.254001))
  (fp_line (start 5.418237 8.001016) (end 5.280518 8.001016) (layer F.SilkS) (width 0.254001))
  (fp_line (start 7.846965 5.93114) (end 7.846965 8.001016) (layer F.SilkS) (width 0.254001))
  (fp_line (start 7.846965 8.001016) (end 7.280518 8.001016) (layer F.SilkS) (width 0.254001))
  (fp_line (start 7.846965 3.933172) (end 7.846965 4.06886) (layer F.SilkS) (width 0.254001))
  (fp_line (start 7.846965 1.934442) (end 7.846965 2.070892) (layer F.SilkS) (width 0.254001))
  (fp_line (start 7.846965 -0.06632) (end 7.846965 0.072162) (layer F.SilkS) (width 0.254001))
  (fp_line (start 7.846965 -2.065558) (end 7.846965 -1.9286) (layer F.SilkS) (width 0.254001))
  (fp_line (start 7.846965 -4.065558) (end 7.846965 -3.927838) (layer F.SilkS) (width 0.254001))
  (fp_line (start 7.280518 -7.998476) (end 7.846965 -7.998476) (layer F.SilkS) (width 0.254001))
  (fp_line (start 7.846965 -7.998476) (end 7.846965 -5.927838) (layer F.SilkS) (width 0.254001))
  (fp_line (start 5.280518 -7.998476) (end 5.418237 -7.998476) (layer F.SilkS) (width 0.254001))
  (fp_line (start 3.280518 -7.998476) (end 3.418237 -7.998476) (layer F.SilkS) (width 0.254001))
  (fp_line (start 1.280518 -7.998476) (end 1.418237 -7.998476) (layer F.SilkS) (width 0.254001))
  (fp_line (start -0.719482 -7.998476) (end -0.581763 -7.998476) (layer F.SilkS) (width 0.254001))
  (fp_line (start -2.719482 -7.998476) (end -2.581763 -7.998476) (layer F.SilkS) (width 0.254001))
  (fp_line (start -4.719482 -7.998476) (end -4.581763 -7.998476) (layer F.SilkS) (width 0.254001))
  (fp_line (start -6.719482 -7.998476) (end -6.581763 -7.998476) (layer F.SilkS) (width 0.254001))
  (fp_line (start -8.581763 8.001016) (end -16.150851 8.001016) (layer F.Fab) (width 0.254001))
  (fp_line (start -16.150851 -7.998476) (end -8.581763 -7.998476) (layer F.Fab) (width 0.254001))
  (fp_line (start -10.150851 -4.998476) (end -10.150851 5.001524) (layer F.Fab) (width 0.254001))
  (fp_line (start -10.150851 5.001524) (end -15.150851 5.001524) (layer F.Fab) (width 0.254001))
  (fp_line (start -15.150851 5.001524) (end -15.150851 4.001524) (layer F.Fab) (width 0.254001))
  (fp_line (start -15.150851 4.001524) (end -12.150851 4.001524) (layer F.Fab) (width 0.254001))
  (fp_line (start -12.150851 4.001524) (end -12.150851 3.001524) (layer F.Fab) (width 0.254001))
  (fp_line (start -12.150851 3.001524) (end -15.150851 3.001524) (layer F.Fab) (width 0.254001))
  (fp_line (start -15.150851 3.001524) (end -15.150851 2.001524) (layer F.Fab) (width 0.254001))
  (fp_line (start -15.150851 2.001524) (end -12.150851 2.001524) (layer F.Fab) (width 0.254001))
  (fp_line (start -12.150851 2.001524) (end -12.150851 1.001524) (layer F.Fab) (width 0.254001))
  (fp_line (start -12.150851 1.001524) (end -15.150851 1.001524) (layer F.Fab) (width 0.254001))
  (fp_line (start -15.150851 1.001524) (end -15.150851 0.001524) (layer F.Fab) (width 0.254001))
  (fp_line (start -15.150851 0.001524) (end -12.150851 0.001524) (layer F.Fab) (width 0.254001))
  (fp_line (start -12.150851 0.001524) (end -12.150851 -0.998476) (layer F.Fab) (width 0.254001))
  (fp_line (start -12.150851 -0.998476) (end -15.150851 -0.998476) (layer F.Fab) (width 0.254001))
  (fp_line (start -15.150851 -0.998476) (end -15.150851 -6.998476) (layer F.Fab) (width 0.254001))
  (fp_line (start -7.150851 6.001524) (end 5.849149 6.001524) (layer F.SilkS) (width 0.254001))
  (fp_line (start 5.849149 6.001524) (end 5.849149 -5.998476) (layer F.SilkS) (width 0.254001))
  (fp_line (start 5.849149 -5.998476) (end -7.150851 -5.998476) (layer F.SilkS) (width 0.254001))
  (fp_line (start -7.150851 -5.998476) (end -7.150851 6.001524) (layer F.SilkS) (width 0.254001))
  (fp_line (start -9.150851 7.001524) (end -9.150851 -6.998476) (layer F.Fab) (width 0.254001))
  (fp_line (start -16.150851 8.001524) (end -16.150851 -7.998476) (layer F.Fab) (width 0.254001))
  (fp_text user REF** (at -4.151943 12.001524) (layer F.Fab)
    (effects (font (size 1 1) (thickness 0.15)))
  )
  (pad 22 smd rect (at -7.650622 -7.550673 270) (size 2.5 1.4) (layers F.Cu F.Paste F.Mask))
  (pad 21 smd rect (at -5.650622 -7.550419 270) (size 2.5 1.4) (layers F.Cu F.Paste F.Mask))
  (pad 20 smd rect (at -3.650622 -7.550673 270) (size 2.5 1.4) (layers F.Cu F.Paste F.Mask))
  (pad 19 smd rect (at -1.650622 -7.549911 270) (size 2.5 1.4) (layers F.Cu F.Paste F.Mask))
  (pad 18 smd rect (at 0.349378 -7.550673 270) (size 2.5 1.4) (layers F.Cu F.Paste F.Mask))
  (pad 17 smd rect (at 2.349378 -7.551435 270) (size 2.5 1.4) (layers F.Cu F.Paste F.Mask))
  (pad 16 smd rect (at 4.349378 -7.550165 270) (size 2.5 1.4) (layers F.Cu F.Paste F.Mask))
  (pad 15 smd rect (at 6.349378 -7.548641 270) (size 2.5 1.4) (layers F.Cu F.Paste F.Mask))
  (pad 14 smd rect (at 7.650368 -4.996698 180) (size 1.7 1.4) (layers F.SilkS))
  (pad 13 smd rect (at 7.649606 -2.996698 180) (size 1.7 1.4) (layers F.SilkS))
  (pad 12 smd rect (at 7.649606 -0.99746 180) (size 1.7 1.4) (layers F.SilkS))
  (pad 11 smd rect (at 7.649606 1.003302 180) (size 1.7 1.4) (layers F.SilkS))
  (pad 10 smd rect (at 7.649098 3.002032 180) (size 1.7 1.4) (layers F.SilkS))
  (pad 9 smd rect (at 7.650622 5 180) (size 1.7 1.4) (layers F.SilkS))
  (pad 8 smd rect (at 6.349378 7.550673 90) (size 2.5 1.4) (layers F.Cu F.Paste F.Mask))
  (pad 7 smd rect (at 4.349378 7.551435 90) (size 2.5 1.4) (layers F.Cu F.Paste F.Mask))
  (pad 6 smd rect (at 2.349378 7.551435 90) (size 2.5 1.4) (layers F.Cu F.Paste F.Mask))
  (pad 5 smd rect (at 0.349378 7.551435 90) (size 2.5 1.4) (layers F.Cu F.Paste F.Mask))
  (pad 4 smd rect (at -1.650622 7.551435 90) (size 2.5 1.4) (layers F.Cu F.Paste F.Mask))
  (pad 3 smd rect (at -3.650622 7.551435 90) (size 2.5 1.4) (layers F.Cu F.Paste F.Mask))
  (pad 2 smd rect (at -5.650622 7.551435 90) (size 2.5 1.4) (layers F.Cu F.Paste F.Mask))
  (pad 1 smd rect (at -7.650622 7.551435 90) (size 2.5 1.4) (layers F.Cu F.Paste F.Mask))
  (model /home/sean/git/jlcpcb/JLC2KiCad_lib/footprint/packages3d/WIFIM-SMD_ESP-12F-ESP8266MOD.wrl
    (offset (xyz -2.044395169296265 0.752220988702774 0))
    (scale (xyz 1 1 1))
    (rotate (xyz 0 0 -90))
  )
)
