EESchema Schematic File Version 4
EELAYER 30 0
EELAYER END
$Descr A4 11693 8268
encoding utf-8
Sheet 1 1
Title "MHI Air Conditioner ESP8266 Adapter"
Date "2023-06-10"
Rev "2.0"
Comp "Sean Lanigan"
Comment1 ""
Comment2 ""
Comment3 ""
Comment4 ""
$EndDescr
$Comp
L RF_Module:ESP-12E U1
U 1 1 636BBF2D
P 7250 2700
F 0 "U1" H 6750 3600 50  0000 L CNN
F 1 "ESP-12E" H 6750 3500 50  0000 L CNN
F 2 "MHI-AC:ESP-12F-ESP8266MOD(no-bottom-row)" H 7250 2700 50  0001 C CNN
F 3 "http://wiki.ai-thinker.com/_media/esp8266/esp8266_series_modules_user_manual_v1.1.pdf" H 6900 2800 50  0001 C CNN
F 4 "C82891" H 7250 2700 50  0001 C CNN "LCSC"
	1    7250 2700
	1    0    0    -1  
$EndComp
Wire Wire Line
	2700 1800 2900 1800
Text GLabel 2700 1800 0    50   Input ~ 0
V_RAW
$Comp
L power:+3V3 #PWR0101
U 1 1 636C55FB
P 4100 1700
F 0 "#PWR0101" H 4100 1550 50  0001 C CNN
F 1 "+3V3" H 4115 1873 50  0000 C CNN
F 2 "" H 4100 1700 50  0001 C CNN
F 3 "" H 4100 1700 50  0001 C CNN
	1    4100 1700
	1    0    0    -1  
$EndComp
Wire Wire Line
	4100 1700 4100 1800
$Comp
L power:GND #PWR0102
U 1 1 636C614E
P 3400 2200
F 0 "#PWR0102" H 3400 1950 50  0001 C CNN
F 1 "GND" H 3405 2027 50  0000 C CNN
F 2 "" H 3400 2200 50  0001 C CNN
F 3 "" H 3400 2200 50  0001 C CNN
	1    3400 2200
	1    0    0    -1  
$EndComp
$Comp
L Device:C C3
U 1 1 636C7014
P 3900 2050
F 0 "C3" H 4015 2096 50  0000 L CNN
F 1 "22uF/10V" H 4015 2005 50  0000 L CNN
F 2 "Capacitor_SMD:C_1206_3216Metric" H 3938 1900 50  0001 C CNN
F 3 "~" H 3900 2050 50  0001 C CNN
F 4 "C5672" H 3900 2050 50  0001 C CNN "LCSC"
	1    3900 2050
	1    0    0    -1  
$EndComp
Wire Wire Line
	3900 1900 3900 1800
Wire Wire Line
	3900 1800 4100 1800
$Comp
L power:GND #PWR0103
U 1 1 636C7ABF
P 3900 2200
F 0 "#PWR0103" H 3900 1950 50  0001 C CNN
F 1 "GND" H 3905 2027 50  0000 C CNN
F 2 "" H 3900 2200 50  0001 C CNN
F 3 "" H 3900 2200 50  0001 C CNN
	1    3900 2200
	1    0    0    -1  
$EndComp
$Comp
L Device:C C2
U 1 1 636C889B
P 2900 2050
F 0 "C2" H 2700 2100 50  0000 L CNN
F 1 "10uF/50V" H 2400 2000 50  0000 L CNN
F 2 "Capacitor_SMD:C_0805_2012Metric" H 2938 1900 50  0001 C CNN
F 3 "~" H 2900 2050 50  0001 C CNN
F 4 "C440198" H 2900 2050 50  0001 C CNN "LCSC"
	1    2900 2050
	1    0    0    -1  
$EndComp
$Comp
L power:GND #PWR0104
U 1 1 636C9FEA
P 2900 2200
F 0 "#PWR0104" H 2900 1950 50  0001 C CNN
F 1 "GND" H 2905 2027 50  0000 C CNN
F 2 "" H 2900 2200 50  0001 C CNN
F 3 "" H 2900 2200 50  0001 C CNN
	1    2900 2200
	1    0    0    -1  
$EndComp
Wire Wire Line
	2900 1900 2900 1800
$Comp
L power:+3V3 #PWR0105
U 1 1 636CFC4C
P 7250 1400
F 0 "#PWR0105" H 7250 1250 50  0001 C CNN
F 1 "+3V3" H 7265 1573 50  0000 C CNN
F 2 "" H 7250 1400 50  0001 C CNN
F 3 "" H 7250 1400 50  0001 C CNN
	1    7250 1400
	1    0    0    -1  
$EndComp
$Comp
L Device:C C1
U 1 1 636D02E6
P 7550 1600
F 0 "C1" V 7300 1650 50  0000 L CNN
F 1 "100nF" V 7400 1650 50  0000 L CNN
F 2 "Capacitor_SMD:C_0603_1608Metric" H 7588 1450 50  0001 C CNN
F 3 "~" H 7550 1600 50  0001 C CNN
F 4 "C14663" H 7550 1600 50  0001 C CNN "LCSC"
	1    7550 1600
	0    1    1    0   
$EndComp
$Comp
L power:GND #PWR0106
U 1 1 636D39CC
P 7800 1700
F 0 "#PWR0106" H 7800 1450 50  0001 C CNN
F 1 "GND" H 7805 1527 50  0000 C CNN
F 2 "" H 7800 1700 50  0001 C CNN
F 3 "" H 7800 1700 50  0001 C CNN
	1    7800 1700
	1    0    0    -1  
$EndComp
$Comp
L power:GND #PWR0107
U 1 1 636D5FB9
P 7250 3750
F 0 "#PWR0107" H 7250 3500 50  0001 C CNN
F 1 "GND" H 7255 3577 50  0000 C CNN
F 2 "" H 7250 3750 50  0001 C CNN
F 3 "" H 7250 3750 50  0001 C CNN
	1    7250 3750
	1    0    0    -1  
$EndComp
Text GLabel 8050 2200 2    50   Input ~ 0
TXD
Text GLabel 8050 2400 2    50   Input ~ 0
RXD
Wire Wire Line
	7850 2200 8050 2200
Wire Wire Line
	7850 2400 8050 2400
$Comp
L Connector:Conn_01x06_Male J1
U 1 1 636DCCE0
P 3000 3800
F 0 "J1" H 3000 4200 50  0000 L CNN
F 1 "FTDI UART" H 3000 4100 50  0000 L CNN
F 2 "Connector_PinHeader_2.54mm:PinHeader_1x06_P2.54mm_Vertical" H 3000 3800 50  0001 C CNN
F 3 "~" H 3000 3800 50  0001 C CNN
	1    3000 3800
	1    0    0    -1  
$EndComp
NoConn ~ 3200 3600
Text GLabel 3350 3700 2    50   Input ~ 0
TXD
Text GLabel 3350 3800 2    50   Input ~ 0
RXD
$Comp
L power:+3V3 #PWR0108
U 1 1 636E8AA8
P 3700 3850
F 0 "#PWR0108" H 3700 3700 50  0001 C CNN
F 1 "+3V3" H 3715 4023 50  0000 C CNN
F 2 "" H 3700 3850 50  0001 C CNN
F 3 "" H 3700 3850 50  0001 C CNN
	1    3700 3850
	1    0    0    -1  
$EndComp
NoConn ~ 3200 4000
$Comp
L power:GND #PWR0109
U 1 1 636EB7A7
P 3700 4150
F 0 "#PWR0109" H 3700 3900 50  0001 C CNN
F 1 "GND" H 3705 3977 50  0000 C CNN
F 2 "" H 3700 4150 50  0001 C CNN
F 3 "" H 3700 4150 50  0001 C CNN
	1    3700 4150
	1    0    0    -1  
$EndComp
Wire Wire Line
	3700 4100 3700 4150
Wire Wire Line
	3700 3850 3700 3900
Wire Wire Line
	3200 3700 3350 3700
Wire Wire Line
	3200 3800 3350 3800
Wire Wire Line
	3200 3900 3700 3900
Wire Wire Line
	3200 4100 3700 4100
$Comp
L Device:R R1
U 1 1 636F648D
P 5900 2050
F 0 "R1" H 5970 2096 50  0000 L CNN
F 1 "10k" H 5970 2005 50  0000 L CNN
F 2 "Resistor_SMD:R_0603_1608Metric" V 5830 2050 50  0001 C CNN
F 3 "~" H 5900 2050 50  0001 C CNN
F 4 "C25804" H 5900 2050 50  0001 C CNN "LCSC"
	1    5900 2050
	1    0    0    -1  
$EndComp
Wire Wire Line
	5900 2200 5900 2300
Wire Wire Line
	5900 2300 6650 2300
$Comp
L power:+3V3 #PWR0110
U 1 1 636F7477
P 5900 1800
F 0 "#PWR0110" H 5900 1650 50  0001 C CNN
F 1 "+3V3" H 5915 1973 50  0000 C CNN
F 2 "" H 5900 1800 50  0001 C CNN
F 3 "" H 5900 1800 50  0001 C CNN
	1    5900 1800
	1    0    0    -1  
$EndComp
Wire Wire Line
	5900 1800 5900 1900
$Comp
L Device:R R4
U 1 1 636F9D47
P 8450 2050
F 0 "R4" H 8520 2096 50  0000 L CNN
F 1 "10k" H 8520 2005 50  0000 L CNN
F 2 "Resistor_SMD:R_0603_1608Metric" V 8380 2050 50  0001 C CNN
F 3 "~" H 8450 2050 50  0001 C CNN
F 4 "C25804" H 8450 2050 50  0001 C CNN "LCSC"
	1    8450 2050
	1    0    0    -1  
$EndComp
$Comp
L power:+3V3 #PWR0111
U 1 1 636F9E69
P 8450 1800
F 0 "#PWR0111" H 8450 1650 50  0001 C CNN
F 1 "+3V3" H 8465 1973 50  0000 C CNN
F 2 "" H 8450 1800 50  0001 C CNN
F 3 "" H 8450 1800 50  0001 C CNN
	1    8450 1800
	1    0    0    -1  
$EndComp
Wire Wire Line
	8450 1800 8450 1900
Wire Wire Line
	7850 2300 8450 2300
Wire Wire Line
	8450 2300 8450 2200
Text GLabel 6550 2100 0    50   Input ~ 0
RESET
Wire Wire Line
	6550 2100 6650 2100
Text GLabel 8050 2100 2    50   Input ~ 0
BOOT
Wire Wire Line
	7850 2100 8050 2100
$Comp
L Device:R R5
U 1 1 63703BD1
P 7950 3500
F 0 "R5" H 8020 3546 50  0000 L CNN
F 1 "10k" H 8020 3455 50  0000 L CNN
F 2 "Resistor_SMD:R_0603_1608Metric" V 7880 3500 50  0001 C CNN
F 3 "~" H 7950 3500 50  0001 C CNN
F 4 "C25804" H 7950 3500 50  0001 C CNN "LCSC"
	1    7950 3500
	1    0    0    -1  
$EndComp
$Comp
L power:GND #PWR0112
U 1 1 63704E01
P 7950 3750
F 0 "#PWR0112" H 7950 3500 50  0001 C CNN
F 1 "GND" H 7955 3577 50  0000 C CNN
F 2 "" H 7950 3750 50  0001 C CNN
F 3 "" H 7950 3750 50  0001 C CNN
	1    7950 3750
	1    0    0    -1  
$EndComp
Wire Wire Line
	7950 3650 7950 3750
$Comp
L Connector:Conn_01x02_Male SW1
U 1 1 637099C5
P 6750 5900
F 0 "SW1" H 6750 6100 50  0000 L CNN
F 1 "Boot" H 6750 6000 50  0000 L CNN
F 2 "Jumper:SolderJumper-2_P1.3mm_Open_RoundedPad1.0x1.5mm" H 6750 5900 50  0001 C CNN
F 3 "~" H 6750 5900 50  0001 C CNN
	1    6750 5900
	1    0    0    -1  
$EndComp
$Comp
L Connector:Conn_01x02_Male SW2
U 1 1 6370C57A
P 7850 5900
F 0 "SW2" H 7850 6100 50  0000 L CNN
F 1 "Reset" H 7850 6000 50  0000 L CNN
F 2 "Jumper:SolderJumper-2_P1.3mm_Open_RoundedPad1.0x1.5mm" H 7850 5900 50  0001 C CNN
F 3 "~" H 7850 5900 50  0001 C CNN
	1    7850 5900
	1    0    0    -1  
$EndComp
Text GLabel 8200 5900 2    50   Input ~ 0
RESET
Wire Wire Line
	8050 5900 8100 5900
$Comp
L Device:R R3
U 1 1 637119F7
P 8100 5650
F 0 "R3" H 8170 5696 50  0000 L CNN
F 1 "10k" H 8170 5605 50  0000 L CNN
F 2 "Resistor_SMD:R_0603_1608Metric" V 8030 5650 50  0001 C CNN
F 3 "~" H 8100 5650 50  0001 C CNN
F 4 "C25804" H 8100 5650 50  0001 C CNN "LCSC"
	1    8100 5650
	1    0    0    -1  
$EndComp
$Comp
L power:+3V3 #PWR0113
U 1 1 63711BE9
P 8100 5400
F 0 "#PWR0113" H 8100 5250 50  0001 C CNN
F 1 "+3V3" H 8115 5573 50  0000 C CNN
F 2 "" H 8100 5400 50  0001 C CNN
F 3 "" H 8100 5400 50  0001 C CNN
	1    8100 5400
	1    0    0    -1  
$EndComp
Wire Wire Line
	8100 5400 8100 5500
Wire Wire Line
	8100 5900 8100 5800
Connection ~ 8100 5900
Wire Wire Line
	8100 5900 8200 5900
$Comp
L power:GND #PWR0114
U 1 1 637176FF
P 8100 6050
F 0 "#PWR0114" H 8100 5800 50  0001 C CNN
F 1 "GND" H 8105 5877 50  0000 C CNN
F 2 "" H 8100 6050 50  0001 C CNN
F 3 "" H 8100 6050 50  0001 C CNN
	1    8100 6050
	1    0    0    -1  
$EndComp
Wire Wire Line
	8050 6000 8100 6000
Wire Wire Line
	8100 6000 8100 6050
Text GLabel 7100 5900 2    50   Input ~ 0
BOOT
Wire Wire Line
	6950 5900 7000 5900
$Comp
L Device:R R2
U 1 1 6371BF8F
P 7000 5650
F 0 "R2" H 7070 5696 50  0000 L CNN
F 1 "1.1k" H 7070 5605 50  0000 L CNN
F 2 "Resistor_SMD:R_0603_1608Metric" V 6930 5650 50  0001 C CNN
F 3 "~" H 7000 5650 50  0001 C CNN
F 4 "C22764" H 7000 5650 50  0001 C CNN "LCSC"
	1    7000 5650
	1    0    0    -1  
$EndComp
$Comp
L power:+3V3 #PWR0115
U 1 1 6371BF99
P 7000 5000
F 0 "#PWR0115" H 7000 4850 50  0001 C CNN
F 1 "+3V3" H 7015 5173 50  0000 C CNN
F 2 "" H 7000 5000 50  0001 C CNN
F 3 "" H 7000 5000 50  0001 C CNN
	1    7000 5000
	1    0    0    -1  
$EndComp
Wire Wire Line
	7000 5400 7000 5500
Wire Wire Line
	7000 5900 7000 5800
Connection ~ 7000 5900
Wire Wire Line
	7000 5900 7100 5900
$Comp
L power:GND #PWR0116
U 1 1 6371BFA7
P 7000 6050
F 0 "#PWR0116" H 7000 5800 50  0001 C CNN
F 1 "GND" H 7005 5877 50  0000 C CNN
F 2 "" H 7000 6050 50  0001 C CNN
F 3 "" H 7000 6050 50  0001 C CNN
	1    7000 6050
	1    0    0    -1  
$EndComp
Wire Wire Line
	6950 6000 7000 6000
Wire Wire Line
	7000 6000 7000 6050
$Comp
L Device:LED_ALT D1
U 1 1 63723400
P 7000 5250
F 0 "D1" V 7039 5132 50  0000 R CNN
F 1 "RED" V 6948 5132 50  0000 R CNN
F 2 "LED_SMD:LED_0603_1608Metric_Castellated" H 7000 5250 50  0001 C CNN
F 3 "~" H 7000 5250 50  0001 C CNN
F 4 "C2286" V 7000 5250 50  0001 C CNN "LCSC"
	1    7000 5250
	0    -1   -1   0   
$EndComp
Wire Wire Line
	7000 5000 7000 5100
Text GLabel 3450 5350 2    50   Input ~ 0
V_RAW
Wire Wire Line
	3300 5350 3450 5350
Text GLabel 9100 2900 2    50   Input ~ 0
SCL
Text GLabel 9100 2750 2    50   Input ~ 0
MOSI
Text GLabel 9100 2500 2    50   Input ~ 0
MISO
$Comp
L power:GND #PWR0117
U 1 1 63747563
P 3350 5800
F 0 "#PWR0117" H 3350 5550 50  0001 C CNN
F 1 "GND" H 3355 5627 50  0000 C CNN
F 2 "" H 3350 5800 50  0001 C CNN
F 3 "" H 3350 5800 50  0001 C CNN
	1    3350 5800
	1    0    0    -1  
$EndComp
Wire Wire Line
	3300 5750 3350 5750
Wire Wire Line
	3350 5750 3350 5800
Text GLabel 3450 5450 2    50   Input ~ 0
SCL
Text GLabel 3450 5550 2    50   Input ~ 0
MOSI
Text GLabel 3450 5650 2    50   Input ~ 0
MISO
$Comp
L Connector_Generic:Conn_01x05 J2
U 1 1 6373984D
P 3100 5550
F 0 "J2" H 3018 5967 50  0000 C CNN
F 1 "MHI SPI" H 3018 5876 50  0000 C CNN
F 2 "Connector_PinHeader_2.54mm:PinHeader_1x05_P2.54mm_Vertical" H 3100 5550 50  0001 C CNN
F 3 "~" H 3100 5550 50  0001 C CNN
	1    3100 5550
	-1   0    0    -1  
$EndComp
Wire Wire Line
	3300 5450 3450 5450
Wire Wire Line
	3300 5550 3450 5550
Wire Wire Line
	3300 5650 3450 5650
$Comp
L Device:R R6
U 1 1 6371BA9F
P 9000 2250
F 0 "R6" H 9070 2296 50  0000 L CNN
F 1 "10k" H 9070 2205 50  0000 L CNN
F 2 "Resistor_SMD:R_0603_1608Metric" V 8930 2250 50  0001 C CNN
F 3 "~" H 9000 2250 50  0001 C CNN
F 4 "C25804" H 9000 2250 50  0001 C CNN "LCSC"
	1    9000 2250
	-1   0    0    1   
$EndComp
$Comp
L power:+3V3 #PWR0118
U 1 1 63721FED
P 9000 2000
F 0 "#PWR0118" H 9000 1850 50  0001 C CNN
F 1 "+3V3" H 9015 2173 50  0000 C CNN
F 2 "" H 9000 2000 50  0001 C CNN
F 3 "" H 9000 2000 50  0001 C CNN
	1    9000 2000
	1    0    0    -1  
$EndComp
$Comp
L Device:R R8
U 1 1 647D377B
P 8850 2900
F 0 "R8" H 8920 2946 50  0000 L CNN
F 1 "1.1k" H 8920 2855 50  0000 L CNN
F 2 "Resistor_SMD:R_0603_1608Metric" V 8780 2900 50  0001 C CNN
F 3 "~" H 8850 2900 50  0001 C CNN
F 4 "C22764" H 8850 2900 50  0001 C CNN "LCSC"
	1    8850 2900
	0    1    1    0   
$EndComp
Wire Wire Line
	7850 3000 7950 3000
Wire Wire Line
	9000 2900 9100 2900
$Comp
L Device:R R7
U 1 1 647EAECF
P 8850 2750
F 0 "R7" H 8800 2800 50  0000 R CNN
F 1 "1.1k" H 8800 2700 50  0000 R CNN
F 2 "Resistor_SMD:R_0603_1608Metric" V 8780 2750 50  0001 C CNN
F 3 "~" H 8850 2750 50  0001 C CNN
F 4 "C22764" H 8850 2750 50  0001 C CNN "LCSC"
	1    8850 2750
	0    1    1    0   
$EndComp
Wire Wire Line
	9000 2750 9100 2750
Wire Wire Line
	8550 2750 8700 2750
Wire Wire Line
	7850 2900 8700 2900
Wire Wire Line
	8550 2800 8550 2750
Wire Wire Line
	7850 2800 8550 2800
Wire Wire Line
	9000 2000 9000 2100
Wire Wire Line
	9000 2400 9000 2500
Wire Wire Line
	9000 2500 9100 2500
Connection ~ 9000 2500
Wire Wire Line
	8450 2700 8450 2500
Wire Wire Line
	8450 2500 9000 2500
Wire Wire Line
	8450 2700 7850 2700
NoConn ~ 6650 2500
NoConn ~ 6650 2700
NoConn ~ 6650 2800
NoConn ~ 6650 2900
NoConn ~ 6650 3000
NoConn ~ 6650 3100
NoConn ~ 6650 3200
NoConn ~ 7850 3100
NoConn ~ 7850 2600
NoConn ~ 7850 2500
Wire Wire Line
	7250 3400 7250 3750
Wire Wire Line
	7950 3000 7950 3350
Wire Wire Line
	7250 1400 7250 1600
Wire Wire Line
	7700 1600 7800 1600
Wire Wire Line
	7800 1600 7800 1700
Wire Wire Line
	7400 1600 7250 1600
Connection ~ 7250 1600
Wire Wire Line
	7250 1600 7250 1900
$Comp
L cui:PXO78xx-500-S U2
U 1 1 64902C1A
P 3400 1800
F 0 "U2" H 3400 2065 50  0000 C CNN
F 1 "PXO7803-500-S" H 3400 1974 50  0000 C CNN
F 2 "MHI-AC:PXO78xx-500-S" H 3150 1700 50  0001 C CNN
F 3 "" H 3150 1700 50  0001 C CNN
	1    3400 1800
	1    0    0    -1  
$EndComp
Wire Wire Line
	2900 1800 3050 1800
Connection ~ 2900 1800
Wire Wire Line
	3400 2150 3400 2200
Wire Wire Line
	3750 1800 3900 1800
Connection ~ 3900 1800
$EndSCHEMATC
